<?xml version="1.0" encoding="UTF-8" standalone="no"?>
<!-- Created with Inkscape (http://www.inkscape.org/) -->

<svg
   width="2560"
   height="600"
   viewBox="0 0 677.33333 158.75001"
   version="1.1"
   id="svg356"
   inkscape:version="1.2.2 (b0a8486541, 2022-12-01)"
   sodipodi:docname="xza_fr_optimised.svg"
   xmlns:inkscape="http://www.inkscape.org/namespaces/inkscape"
   xmlns:sodipodi="http://sodipodi.sourceforge.net/DTD/sodipodi-0.dtd"
   xmlns="http://www.w3.org/2000/svg"
   xmlns:svg="http://www.w3.org/2000/svg">
  <sodipodi:namedview
     id="namedview358"
     pagecolor="#ffffff"
     bordercolor="#000000"
     borderopacity="0.25"
     inkscape:showpageshadow="2"
     inkscape:pageopacity="0.0"
     inkscape:pagecheckerboard="0"
     inkscape:deskcolor="#d1d1d1"
     inkscape:document-units="mm"
     showgrid="false"
     inkscape:zoom="0.2102413"
     inkscape:cx="580.2856"
     inkscape:cy="442.34886"
     inkscape:window-width="1440"
     inkscape:window-height="539"
     inkscape:window-x="26"
     inkscape:window-y="23"
     inkscape:window-maximized="0"
     inkscape:current-layer="layer1" />
  <defs
     id="defs353" />
  <g
     inkscape:label="Layer 1"
     inkscape:groupmode="layer"
     id="layer1">
    <path
       id="path1667-7-9"
       style="display:inline;fill:#000000;fill-opacity:1;stroke:#ffffff;stroke-width:23.0911;stroke-dasharray:none;stroke-opacity:1;paint-order:stroke fill markers"
       d="m 549.73291,15.826518 c -22.72726,0.551561 -48.78149,15.643533 -56.09763,50.699597 -19.92185,4.759409 -39.14519,10.08303 -55.16537,15.114601 -2.0448,-6.674928 -4.1003,-14.101315 -6.36063,-22.726328 23.02428,-6.321424 48.78441,-12.966619 65.10732,-14.87087 1.24773,-15.142321 4.00503,-12.92825 1.92388,-15.647747 -27.65459,4.918958 -52.13775,10.223549 -70.96725,15.136801 -0.60256,-2.400144 -1.16645,-4.617465 -1.81331,-7.221157 -10.42606,1.194923 -21.10684,7.714759 -28.12903,14.271991 0.16767,0.689351 0.34487,1.379357 0.51396,2.068977 -4.46687,1.806328 -7.44329,3.428803 -8.6567,4.79191 3.80648,4.82763 10.67617,10.151822 10.50412,10.228787 0.55805,-0.153275 1.25218,-0.348957 1.82949,-0.508388 2.1886,8.305653 4.5246,16.557783 7.07347,24.64804 -11.25054,4.613626 -16.19603,8.028353 -11.26949,8.982788 l 15.4804,3.64109 c 2.87469,8.11634 6.01072,15.99781 9.48822,23.51559 2.74024,4.18314 2.62545,8.99207 8.63067,12.45998 11.81932,-0.68486 22.35654,-3.00773 26.66876,-7.48538 -0.70853,-5.75855 -4.68803,-10.21028 -6.57191,-14.69799 -2.83763,-6.75983 -5.22798,-12.74259 -7.38759,-18.586655 l 47.15535,-16.307669 c -0.15524,4.863373 0.0249,10.040157 0.5242,15.495789 -0.41234,0.0809 -0.82962,0.17433 -1.2405,0.25184 -1.98595,0.86103 -2.1733,7.489265 -0.32517,9.692655 0.95901,-0.0138 1.89125,0.007 2.8083,0.0474 1.18309,7.46969 2.94684,15.42339 5.41976,23.92238 7.22614,2.02702 19.7115,3.69271 24.27115,-1.3574 1.58606,-1.75671 0.51309,-5.04287 0.78968,-6.34865 -0.44062,-1.12606 -0.87835,-2.61209 -1.30152,-4.35524 l 0.27064,0.11227 c 83.32273,30.4785 114.50951,24.11249 128.36592,14.29376 4.77328,-3.38235 6.75847,-9.80459 9.89413,-14.55073 -5.07714,-7.87213 -7.31053,-9.33592 -12.21538,-13.33332 -5.81206,3.09567 -8.03695,3.46034 -17.62411,12.83902 l 1.27635,5.54915 c -27.1822,7.87803 -59.90827,-14.60401 -84.4342,-25.873105 l -2.49841,0.363685 c 67.37007,-49.905514 39.88934,-85.126912 4.06243,-84.257443 z m -5.70834,16.166379 c 2.6999,0.03934 5.67033,0.643551 8.93324,1.897816 6.04212,3.635904 7.16393,16.48157 2.33962,25.879952 -7.66558,14.933468 -21.08497,24.652453 -35.99991,30.996266 -0.6542,-27.067032 4.29855,-59.071832 24.72705,-58.774034 z m -265.07475,0.703892 c -7.87849,0.208321 -13.39957,3.117338 -21.09362,5.123997 -7.34902,21.420469 -8.83447,42.430705 -8.76894,62.237984 -0.84608,0.27829 -1.67649,0.5581 -2.48772,0.84005 -0.70426,-4.345811 -2.09562,-8.957595 -4.24212,-13.813536 -1.17771,3.592016 -13.36572,9.379217 -14.07777,12.889821 -2.35625,11.616695 8.50934,16.236675 -6.16508,23.235985 -7.59757,2.7202 -29.59212,0.66435 -43.11647,-2.21197 22.00004,-16.817 41.28947,-47.420223 52.45569,-59.361805 2.12524,-6.585826 2.57029,-11.760302 2.80742,-15.899173 -26.47197,1.028068 -72.48517,1.934801 -99.59014,11.16404 1.57786,-3.107746 3.13726,-6.297383 4.66897,-9.603446 C 131.17942,44.313734 120.13178,44.72594 110.099,47.215059 99.188949,62.623836 88.646614,76.162485 78.456466,87.819469 70.555863,77.057899 63.04653,63.536824 56.311948,46.194871 42.61473,47.549733 30.821544,48.738512 23.85327,52.805613 c 8.71108,20.826945 21.320629,40.086769 35.274234,55.248177 -14.757174,13.95009 -28.725399,23.54475 -41.946886,28.67886 1.834522,3.68924 22.849318,3.23497 26.589395,3.98557 11.356457,-2.37271 23.055694,-7.21423 34.648892,-15.02752 12.35784,9.27246 24.860235,14.83279 35.974285,15.13125 12.35666,-2.25143 25.07166,-0.0426 33.51173,-4.56738 -1.19843,-0.55287 -2.44147,-1.09868 -3.67907,-1.64596 15.13762,2.70778 39.36548,7.10901 68.52345,6.0251 17.67175,-3.30852 29.0972,-11.66657 32.94826,-23.70426 1.34126,0.7023 2.62242,1.11651 3.77129,1.03811 0.18462,5.7075 0.38279,11.32776 0.49133,16.7516 10.20599,1.65205 16.83407,-0.30282 23.33758,-2.38357 -0.0917,-7.69407 -0.63375,-13.6676 -0.91262,-20.36879 7.64244,-2.17743 15.32799,-4.5033 23.02599,-6.92747 18.91968,21.55183 39.93729,31.57731 52.82915,35.62297 6.12302,-1.61404 14.5632,-2.35885 17.37443,-5.21535 -14.4834,-12.70259 -28.40047,-25.46389 -41.10983,-39.885991 9.51142,-3.166555 18.97289,-6.346186 28.30624,-9.421175 1.05891,-2.69972 -10.9049,-7.131065 -12.8941,-9.439953 -6.34393,2.383519 -15.20195,4.728232 -25.17781,7.105467 C 303.34882,69.210342 293.19469,52.7459 284.83654,33.028441 c -2.12483,-0.283833 -4.06862,-0.379745 -5.88672,-0.331664 z M 132.66313,60.772497 c 8.59174,7.233856 20.43041,11.968307 21.10553,10.53613 9.83518,-1.962443 9.08572,-3.004252 38.92345,-8.470565 C 161.33186,110.78627 146.7876,118.58089 133.16596,129.76549 122.08361,124.86248 110.10051,118.96357 98.277177,109.09363 110.3368,96.923207 121.9782,81.02401 132.66313,60.772497 Z M 274.6082,73.775434 c 3.06618,6.169159 6.37315,11.794711 9.83269,16.954359 -4.01055,0.922409 -7.96887,1.863374 -11.86752,2.817262 0.34445,-5.506841 0.97268,-11.925947 2.03483,-19.771621 z m 126.32128,42.141516 c -13.11756,3.67885 -21.4732,8.44461 -28.79323,13.44687 -0.12767,2.72345 -0.64225,3.95551 1.62714,5.68105 9.09687,0.15167 18.20978,0.24275 27.79444,-1.42997 1.30934,-4.21847 -0.22054,-11.57912 -0.62835,-17.69795 z" />
  </g>
</svg>
